…
``` r
library(ipumsimport)
# Unzip the example data
temp_dir <- tempdir()
unzip(system.file("brfss1984a.zip", package = "ipumsimport"), exdir = temp_dir)

brfss1984a <- read_ipums_output(
  paste0(temp_dir, "/brfss1984a_brfss.yml"), 
  paste0(temp_dir, "/brfss1984a_brfss.dat"),
  c(SEX, AGE, SMOKEV)
)

brfss1984a
#> # A tibble: 12,258 × 3
#>          AGE       SEX    SMOKEV
#>    <dbl+lbl> <dbl+lbl> <dbl+lbl>
#> 1         39         2         1
#> 2         44         2         1
#> 3         22         1         2
#> 4         64         2         1
#> 5         33         1         1
#> 6         35         1         2
#> 7         72         1         2
#> 8         71         2         1
#> 9         50         2         1
#> 10        47         1         1
#> # ... with 12,248 more rows
```
…
