Introduction to ripums - IPUMS Data in R
…
Therefore, the ripums package uses the labelled class from the haven package to store labelled values. See the “semantics” vignette from the haven package for more information. vignette("semantics", package = "haven")

In summary, it is generally best if you wish to use the labels, to convert from the labelled class to factor early on in data analysis workflow. This is because many data manipulation functions will lose the associated labels. The function haven::as_factor() is the main function to create factors from labels.

library(ripums)
library(dplyr, warn.conflicts = FALSE)

# Note that you can pass in the loaded DDI into the `read_ipums_micro()`
cps_ddi <- read_ddi(ripums_example("cps_00011.xml"))
cps_data <- read_ipums_micro(cps_ddi, verbose = FALSE)

# Show which variables have labels
cps_data %>%
  select_if(is.labelled)
#> # A tibble: 204,983 x 6
#>     ASECFLAG  FOODSTMP     MONTH       AGE   EMPSTAT    HEALTH
#>  * <dbl+lbl> <dbl+lbl> <dbl+lbl> <dbl+lbl> <dbl+lbl> <dbl+lbl>
#>  1         1         1         3        55        32         4
#>  2         1         1         3        74        36         3
#>  3         1         1         3        75        36         3
#>  4         1         1         3        48        10         2
#>  5         1         1         3        41        10         2
#>  6         1         1         3        71        36         2
#>  7         1         1         3        31        10         3
#>  8         1         1         3        34        10         3
#>  9         1         1         3        13         0         2
#> 10         1         1         3        10         0         2
#> # ... with 204,973 more rows
…
List data loads each record type into a separate data.frame. The names of the recordtype data.frames are the value of the RECTYPE variable (eg “H” and “P”).

library(ripums)
library(dplyr, warn.conflicts = FALSE)

# Long data
cps <- read_ipums_micro(
  ripums_example("cps_00010.xml"),
  data_structure = "long",
  verbose = FALSE
)

cps
#> # A tibble: 11,053 x 9
#>    RECTYPE  YEAR SERIAL HWTSUPP  STATEFIP     MONTH PERNUM  WTSUPP
#>  *   <chr> <dbl>  <dbl>   <dbl> <dbl+lbl> <dbl+lbl>  <dbl>   <dbl>
#>  1       H  1962     80 1475.59        55         3     NA      NA
#>  2       P  1962     80      NA        NA        NA      1 1475.59
#>  3       P  1962     80      NA        NA        NA      2 1470.72
#>  4       P  1962     80      NA        NA        NA      3 1578.75
#>  5       H  1962     82 1597.61        27         3     NA      NA
#>  6       P  1962     82      NA        NA        NA      1 1597.61
#>  7       H  1962     83 1706.65        27         3     NA      NA
#>  8       P  1962     83      NA        NA        NA      1 1706.65
#>  9       H  1962     84 1790.25        27         3     NA      NA
#> 10       P  1962     84      NA        NA        NA      1 1790.25
#> # ... with 11,043 more rows, and 1 more variables: INCTOT <dbl>

# List data
cps <- read_ipums_micro(
  ripums_example("cps_00010.xml"),
  data_structure = "list",
  verbose = FALSE
)

cps$P
#> # A tibble: 7,668 x 5
#>     YEAR SERIAL PERNUM  WTSUPP   INCTOT
#>    <dbl>  <dbl>  <dbl>   <dbl>    <dbl>
#>  1  1962     80      1 1475.59     4883
#>  2  1962     80      2 1470.72     5800
#>  3  1962     80      3 1578.75 99999998
#>  4  1962     82      1 1597.61    14015
#>  5  1962     83      1 1706.65    16552
#>  6  1962     84      1 1790.25     6375
#>  7  1962    107      1 4355.40 99999999
#>  8  1962    107      2 1385.81        0
#>  9  1962    107      3 1629.10      600
#> 10  1962    107      4 1432.24 99999999
#> # ... with 7,658 more rows

cps$H
#> # A tibble: 3,385 x 5
#>     YEAR SERIAL HWTSUPP  STATEFIP     MONTH
#>    <dbl>  <dbl>   <dbl> <dbl+lbl> <dbl+lbl>
#>  1  1962     80 1475.59        55         3
#>  2  1962     82 1597.61        27         3
#>  3  1962     83 1706.65        27         3
#>  4  1962     84 1790.25        27         3
#>  5  1962    107 4355.40        19         3
#>  6  1962    108 1479.05        19         3
#>  7  1962    122 3602.75        27         3
#>  8  1962    124 4104.41        55         3
#>  9  1962    125 2182.17        55         3
#> 10  1962    126 1826.38        55         3
#> # ... with 3,375 more rows
…
