Value Labels • ipumsr
…
            2020-06-17

      Source: vignettes/value-labels.Rmd
      value-labels.Rmd

Value labels in the ipumsr package

Integrated variables in IPUMS data often have value labels, which attach text labels to the values taken by a variable (for example the HEALTH variable has value labels: 1 = “Excellent”, 2 = “Very good”, etc.). The ipumsr package does import the labels, but not as factors, which may be how you were expecting them.

library(ipumsr)
ddi <- read_ipums_ddi(ipums_example("cps_00015.xml"))
cps <- read_ipums_micro(ddi, verbose = FALSE)

cps
#> # A tibble: 10,883 x 13
#>     YEAR SERIAL HWTSUPP STATEFIP ASECFLAG   MONTH PERNUM WTSUPP   AGE      EDUC
#>    <dbl>  <dbl>   <dbl> <int+lb> <int+lb> <int+l>  <dbl>  <dbl> <int> <int+lbl>
#>  1  2016  24138   3249. 55 [Wis~ 1 [ASEC] 3 [Mar~      1  3249.    54  73 [Hig~
#>  2  2016  24139   3154. 55 [Wis~ 1 [ASEC] 3 [Mar~      1  3154.    54  73 [Hig~
#>  3  2016  24139   3154. 55 [Wis~ 1 [ASEC] 3 [Mar~      2  3154.    52  73 [Hig~
#>  4  2016  24140   1652. 55 [Wis~ 1 [ASEC] 3 [Mar~      1  1652.    38  60 [Gra~
#>  5  2016  24140   1652. 55 [Wis~ 1 [ASEC] 3 [Mar~      2  1503.    15  10 [Gra~
#>  6  2016  24140   1652. 55 [Wis~ 1 [ASEC] 3 [Mar~      3  1652.    38  73 [Hig~
#>  7  2016  24141   3049. 55 [Wis~ 1 [ASEC] 3 [Mar~      1  3049.    85  30 [Gra~
#>  8  2016  24142   1637. 55 [Wis~ 1 [ASEC] 3 [Mar~      1  1637.    27 111 [Bac~
#>  9  2016  24142   1637. 55 [Wis~ 1 [ASEC] 3 [Mar~      2  1637.    27 111 [Bac~
#> 10  2016  24142   1637. 55 [Wis~ 1 [ASEC] 3 [Mar~      3  1887.     2   1 [NIU~
#> # ... with 10,873 more rows, and 3 more variables: INCTOT <dbl+lbl>,
#> #   HEALTH <int+lbl>, MIGRATE1 <int+lbl>
…
zap_labels()

I may decide that for my analysis, the AGE variable is most useful as the numeric values. The zap_labels() function removes the labels.

cps$AGE <- zap_labels(cps$AGE)

The top-codes (which are only available on the CPS website) indicate that the value 80 actually indicates 80-84 and 85 indicates 85+, so another option would be to convert them to a factor with age ranges.

lbl_clean()

This extract only contains data from a few states and I don’t want the factor to have a level for the unused ones. The lbl_clean() function keeps only labels for values in the current data set and returns a labelled variable which we can convert to a factor.

ipums_val_labels(cps$STATEFIP)
#> # A tibble: 75 x 2
#>      val lbl                 
#>    <dbl> <chr>               
#>  1     1 Alabama             
#>  2     2 Alaska              
#>  3     4 Arizona             
#>  4     5 Arkansas            
#>  5     6 California          
#>  6     8 Colorado            
#>  7     9 Connecticut         
#>  8    10 Delaware            
#>  9    11 District of Columbia
#> 10    12 Florida             
#> # ... with 65 more rows
…
# Change to a factor in the original cps data.frame
cps$INCTOT <- lbl_na_if(cps$INCTOT, ~.val >= 9999990)
cps$INCTOT <- as_factor(cps$INCTOT)

lbl_collapse()

The EDUC variable provides an example of a common IPUMS practice of grouping categories together by the starting digits. For example, the value 10 indicates “Grades 1, 2, 3, or 4”, and 11 - “Grade 1”, 12 - “Grade 2”, etc.

Let’s say that I only care about those more general categories provided by the first 2 digits. The lbl_collapse() function allows me to provide a function that takes .val and .lbl and returns the value to assign it to. If that code is already used, then the all of the values assigned to it will get that label, otherwise the label of the smallest value is used. Just like with lbl_na_if(), the purrr-style compact syntax using ~ functions is supported.

ipums_val_labels(cps$EDUC)
#> # A tibble: 36 x 2
#>      val lbl                 
#>    <dbl> <chr>               
#>  1     0 NIU or no schooling 
#>  2     1 NIU or blank        
#>  3     2 None or preschool   
#>  4    10 Grades 1, 2, 3, or 4
#>  5    11 Grade 1             
#>  6    12 Grade 2             
#>  7    13 Grade 3             
#>  8    14 Grade 4             
#>  9    20 Grades 5 or 6       
#> 10    21 Grade 5             
#> # ... with 26 more rows
…
